…
get_data(coh)
#> $books
#> # A tibble: 1 × 6
#>   isbn          title             genre                       publisher 
#>   <chr>         <chr>             <chr>                       <chr>     
#> 1 0-385-50420-9 The Da Vinci Code Crime, Thriller & Adventure Transworld
#>   author    copies
#>   <chr>      <int>
#> 1 Dan Brown      7
#> 
#> $borrowers
#> # A tibble: 8 × 6
#>   id     registered address                                         
#>   <chr>  <date>     <chr>                                           
#> 1 000013 2011-09-30 534 Iroquois Ave. Watertown, MA 02472           
#> 2 000014 2013-01-12 7968 Victoria Drive Dearborn, MI 48124          
#> 3 000015 2013-12-24 9484 Somerset Road Romeoville, IL 60446         
#> 4 000016 2014-01-20 48 Prairie Ave. Palos Verdes Peninsula, CA 90274
#> 5 000017 2014-04-07 8501 Lawrence Rd. Terre Haute, IN 47802         
#>   name                    phone_number program 
#>   <chr>                   <chr>        <chr>   
#> 1 Dr. Sharif Kunde        104-832-8013 premium 
#> 2 Marlena Reichert PhD    044-876-8419 vip     
#> 3 Mr. Brandan Oberbrunner 568-044-7463 vip     
#> 4 Lloyd Adams III         001-017-0211 standard
#> 5 Randy Ziemann           895-995-2326 premium 
#> # ℹ 3 more rows
#> 
#> $issues
#> # A tibble: 50 × 4
#>   id     borrower_id isbn              date      
#>   <chr>  <chr>       <chr>             <date>    
#> 1 000001 000019      0-676-97976-9     2015-03-17
#> 2 000002 000010      978-0-7528-6053-4 2008-09-13
#> 3 000003 000016      0-09-177373-3     2014-09-28
#> 4 000004 000005      0-224-06252-2     2005-11-14
#> 5 000005 000004      0-340-89696-5     2006-03-19
#> # ℹ 45 more rows
#> 
#> $returns
#> # A tibble: 30 × 2
#>   id     date      
#>   <chr>  <date>    
#> 1 000001 2015-04-06
#> 2 000003 2014-10-23
#> 3 000004 2005-12-29
#> 4 000005 2006-03-26
#> 5 000006 2016-08-30
#> # ℹ 25 more rows
…
``` r
get_data(coh, step_id = 1)
#> $books
#> # A tibble: 2 × 6
#>   isbn          title             genre                       publisher 
#>   <chr>         <chr>             <chr>                       <chr>     
#> 1 0-385-50420-9 The Da Vinci Code Crime, Thriller & Adventure Transworld
#> 2 0-671-02735-2 Angels and Demons Crime, Thriller & Adventure Transworld
#>   author    copies
#>   <chr>      <int>
#> 1 Dan Brown      7
#> 2 Dan Brown      4
#> 
#> $borrowers
#> # A tibble: 8 × 6
#>   id     registered address                                         
#>   <chr>  <date>     <chr>                                           
#> 1 000013 2011-09-30 534 Iroquois Ave. Watertown, MA 02472           
#> 2 000014 2013-01-12 7968 Victoria Drive Dearborn, MI 48124          
#> 3 000015 2013-12-24 9484 Somerset Road Romeoville, IL 60446         
#> 4 000016 2014-01-20 48 Prairie Ave. Palos Verdes Peninsula, CA 90274
#> 5 000017 2014-04-07 8501 Lawrence Rd. Terre Haute, IN 47802         
#>   name                    phone_number program 
#>   <chr>                   <chr>        <chr>   
#> 1 Dr. Sharif Kunde        104-832-8013 premium 
#> 2 Marlena Reichert PhD    044-876-8419 vip     
#> 3 Mr. Brandan Oberbrunner 568-044-7463 vip     
#> 4 Lloyd Adams III         001-017-0211 standard
#> 5 Randy Ziemann           895-995-2326 premium 
#> # ℹ 3 more rows
#> 
#> $issues
#> # A tibble: 50 × 4
#>   id     borrower_id isbn              date      
#>   <chr>  <chr>       <chr>             <date>    
#> 1 000001 000019      0-676-97976-9     2015-03-17
#> 2 000002 000010      978-0-7528-6053-4 2008-09-13
#> 3 000003 000016      0-09-177373-3     2014-09-28
#> 4 000004 000005      0-224-06252-2     2005-11-14
#> 5 000005 000004      0-340-89696-5     2006-03-19
#> # ℹ 45 more rows
#> 
#> $returns
#> # A tibble: 30 × 2
#>   id     date      
#>   <chr>  <date>    
#> 1 000001 2015-04-06
#> 2 000003 2014-10-23
#> 3 000004 2005-12-29
#> 4 000005 2006-03-26
#> 5 000006 2016-08-30
#> # ℹ 25 more rows
…
``` r
get_data(coh, step_id = 2)
#> $books
#> # A tibble: 1 × 6
#>   isbn          title             genre                       publisher 
#>   <chr>         <chr>             <chr>                       <chr>     
#> 1 0-385-50420-9 The Da Vinci Code Crime, Thriller & Adventure Transworld
#>   author    copies
#>   <chr>      <int>
#> 1 Dan Brown      7
#> 
#> $borrowers
#> # A tibble: 8 × 6
#>   id     registered address                                         
#>   <chr>  <date>     <chr>                                           
#> 1 000013 2011-09-30 534 Iroquois Ave. Watertown, MA 02472           
#> 2 000014 2013-01-12 7968 Victoria Drive Dearborn, MI 48124          
#> 3 000015 2013-12-24 9484 Somerset Road Romeoville, IL 60446         
#> 4 000016 2014-01-20 48 Prairie Ave. Palos Verdes Peninsula, CA 90274
#> 5 000017 2014-04-07 8501 Lawrence Rd. Terre Haute, IN 47802         
#>   name                    phone_number program 
#>   <chr>                   <chr>        <chr>   
#> 1 Dr. Sharif Kunde        104-832-8013 premium 
#> 2 Marlena Reichert PhD    044-876-8419 vip     
#> 3 Mr. Brandan Oberbrunner 568-044-7463 vip     
#> 4 Lloyd Adams III         001-017-0211 standard
#> 5 Randy Ziemann           895-995-2326 premium 
#> # ℹ 3 more rows
#> 
#> $issues
#> # A tibble: 50 × 4
#>   id     borrower_id isbn              date      
#>   <chr>  <chr>       <chr>             <date>    
#> 1 000001 000019      0-676-97976-9     2015-03-17
#> 2 000002 000010      978-0-7528-6053-4 2008-09-13
#> 3 000003 000016      0-09-177373-3     2014-09-28
#> 4 000004 000005      0-224-06252-2     2005-11-14
#> 5 000005 000004      0-340-89696-5     2006-03-19
#> # ℹ 45 more rows
#> 
#> $returns
#> # A tibble: 30 × 2
#>   id     date      
#>   <chr>  <date>    
#> 1 000001 2015-04-06
#> 2 000003 2014-10-23
#> 3 000004 2005-12-29
#> 4 000005 2006-03-26
#> 5 000006 2016-08-30
#> # ℹ 25 more rows
…
get_data(coh, step_id = 2)
#> $books
#> # A tibble: 1 × 6
#>   isbn          title             genre                       publisher 
#>   <chr>         <chr>             <chr>                       <chr>     
#> 1 0-385-50420-9 The Da Vinci Code Crime, Thriller & Adventure Transworld
#>   author    copies
#>   <chr>      <int>
#> 1 Dan Brown      7
#> 
#> $borrowers
#> # A tibble: 8 × 6
#>   id     registered address                                         
#>   <chr>  <date>     <chr>                                           
#> 1 000013 2011-09-30 534 Iroquois Ave. Watertown, MA 02472           
#> 2 000014 2013-01-12 7968 Victoria Drive Dearborn, MI 48124          
#> 3 000015 2013-12-24 9484 Somerset Road Romeoville, IL 60446         
#> 4 000016 2014-01-20 48 Prairie Ave. Palos Verdes Peninsula, CA 90274
#> 5 000017 2014-04-07 8501 Lawrence Rd. Terre Haute, IN 47802         
#>   name                    phone_number program 
#>   <chr>                   <chr>        <chr>   
#> 1 Dr. Sharif Kunde        104-832-8013 premium 
#> 2 Marlena Reichert PhD    044-876-8419 vip     
#> 3 Mr. Brandan Oberbrunner 568-044-7463 vip     
#> 4 Lloyd Adams III         001-017-0211 standard
#> 5 Randy Ziemann           895-995-2326 premium 
#> # ℹ 3 more rows
#> 
#> $issues
#> # A tibble: 50 × 4
#>   id     borrower_id isbn              date      
#>   <chr>  <chr>       <chr>             <date>    
#> 1 000001 000019      0-676-97976-9     2015-03-17
#> 2 000002 000010      978-0-7528-6053-4 2008-09-13
#> 3 000003 000016      0-09-177373-3     2014-09-28
#> 4 000004 000005      0-224-06252-2     2005-11-14
#> 5 000005 000004      0-340-89696-5     2006-03-19
#> # ℹ 45 more rows
#> 
#> $returns
#> # A tibble: 30 × 2
#>   id     date      
#>   <chr>  <date>    
#> 1 000001 2015-04-06
#> 2 000003 2014-10-23
#> 3 000004 2005-12-29
#> 4 000005 2006-03-26
#> 5 000006 2016-08-30
#> # ℹ 25 more rows
…
