Specifying data relations with Binding Keys • cohortBuilder
…
#> # A tibble: 2 × 6
#>   id     registered address                           name  phone_number program
#>   <chr>  <date>     <chr>                             <chr> <chr>        <chr>  
#> 1 000009 2007-07-19 9692 E. Fifth Dr. Waterbury, CT … Mari… 669-975-6908 standa…
#> 2 000017 2014-04-07 8501 Lawrence Rd. Terre Haute, I… Rand… 895-995-2326 premium
#> 
#> $issues
#> # A tibble: 2 × 4
#>   id     borrower_id isbn          date      
#>   <chr>  <chr>       <chr>         <date>    
#> 1 000009 000017      0-09-177373-3 2016-11-12
#> 2 000044 000009      0-09-177373-3 2016-11-20
#> 
#> $returns
#> # A tibble: 30 × 2
#>   id     date      
#>   <chr>  <date>    
#> 1 000001 2015-04-06
#> 2 000003 2014-10-23
#> 3 000004 2005-12-29
#> 4 000005 2006-03-26
#> 5 000006 2016-08-30
#> # … with 25 more rows
…
