Managing Cohort Object • cohortBuilder
…
Calling run we trigger all steps computations. In our case we’ve updated only the second step so we can optimize workflow skipping the previous steps calculation by specifying min_step_id parameter:

run(librarian_cohort, min_step_id = 2)

get_data(librarian_cohort)
#> $books
#> # A tibble: 2 × 6
#>   isbn          title             genre                  publisher author copies
#>   <chr>         <chr>             <chr>                  <chr>     <chr>   <int>
#> 1 0-385-50420-9 The Da Vinci Code Crime, Thriller & Adv… Transwor… Dan B…      7
#> 2 0-671-02735-2 Angels and Demons Crime, Thriller & Adv… Transwor… Dan B…      4
#> 
#> $borrowers
#> # A tibble: 6 × 6
#>   id     registered address                           name  phone_number program
#>   <chr>  <date>     <chr>                             <chr> <chr>        <chr>  
#> 1 000001 2001-06-09 66 N. Evergreen Ave. Norristown,… Mrs.… 626-594-4729 premium
#> 2 000005 2005-01-15 580 Chapel Rd. Delray Beach, FL … Ferd… 127-363-0738 premium
#> 3 000008 2006-11-15 9533 Delaware Dr. Peabody, MA 01… Mrs.… 460-779-8714 premium
#> 4 000011 2009-03-24 745 E. Sussex Drive Mahwah, NJ 0… Mr. … 378-884-6509 premium
#> 5 000013 2011-09-30 534 Iroquois Ave. Watertown, MA … Dr. … 104-832-8013 premium
#> # … with 1 more row
#> 
#> $issues
#> # A tibble: 42 × 4
#>   id     borrower_id isbn          date      
#>   <chr>  <chr>       <chr>         <date>    
#> 1 000001 000019      0-676-97976-9 2015-03-17
#> 2 000003 000016      0-09-177373-3 2014-09-28
#> 3 000006 000018      0-14-303714-5 2016-07-21
#> 4 000008 000016      0-340-89696-5 2016-04-16
#> 5 000009 000017      0-09-177373-3 2016-11-12
#> # … with 37 more rows
#> 
#> $returns
#> # A tibble: 30 × 2
#>   id     date      
#>   <chr>  <date>    
#> 1 000001 2015-04-06
#> 2 000003 2014-10-23
#> 3 000004 2005-12-29
#> 4 000005 2006-03-26
#> 5 000006 2016-08-30
#> # … with 25 more rows
…
